[
  {
    "productId": 15117729,
    "value": 60.11,
    "currency": "USD"
  },
  {
    "productId": 16483589,
    "value": 1322.39,
    "currency": "USD"
  },
  {
    "productId": 16696652,
    "value": 1.02,
    "currency": "USD"
  },
  {
    "productId": 16752456,
    "value": 0.7,
    "currency": "USD"
  },
  {
    "productId": 15643793,
    "value": 434.9,
    "currency": "USD"
  },
  {
    "productId": 13860428,
    "value": 13.49,
    "currency": "USD"
  }
]

